<svg width="116" height="21" viewBox="0 0 116 21" fill="none" xmlns="http://www.w3.org/2000/svg">
<path fill-rule="evenodd" clip-rule="evenodd" d="M7.32283 18.0908C6.90881 18.0851 6.50837 18.0272 6.12745 17.9224C8.20126 17.4083 9.75237 15.5202 9.78236 13.2521C9.79057 12.5786 10.3339 12.04 10.9964 12.0497C11.6572 12.059 12.1861 12.6114 12.1774 13.2832C12.1411 15.9756 9.96829 18.1265 7.32283 18.0908ZM3.77886 14.388C3.11665 14.378 2.58744 13.827 2.5965 13.154C2.63216 10.4619 4.80501 8.31014 7.45103 8.3467C7.86421 8.3513 8.26521 8.41089 8.64698 8.51596C6.57233 9.02864 5.02178 10.915 4.9915 13.1859C4.98301 13.859 4.43966 14.3973 3.77886 14.388ZM14.0797 10.0422C13.2513 7.88295 7.38623 0.831787 7.38623 0.831787C7.38623 0.831787 1.52026 7.88295 0.692777 10.0422C0.248754 11.0071 0 12.0834 0 13.2176C0 17.3677 3.30682 20.7302 7.38623 20.7302C11.4653 20.7302 14.7719 17.3677 14.7719 13.2176C14.7719 12.0834 14.5231 11.0071 14.0797 10.0422Z" fill="white"/>
<path fill-rule="evenodd" clip-rule="evenodd" d="M19.499 13.5794L19.78 13.8356C20.7663 14.722 22.0067 15.4451 23.4514 15.4451C24.0711 15.4451 25.0976 15.1886 25.2207 14.3955C25.3441 13.6025 24.5299 13.5325 23.9741 13.4157L22.7487 13.1822C20.3636 12.7389 18.5286 11.2694 18.9574 8.51567C19.6071 4.34053 23.7103 2.00684 27.4708 2.00684C29.443 2.00684 31.1786 2.49678 32.713 3.54632L30.3143 8.04934C29.3524 7.30291 28.2275 6.7197 26.8748 6.7197C26.3238 6.7197 25.4889 6.92927 25.3763 7.65295C25.2747 8.30611 26.0397 8.39938 26.5032 8.51567L27.8746 8.84268C30.44 9.44978 32.1416 10.8966 31.6764 13.8823C31.0232 18.0816 26.9387 20.1579 23.1992 20.1579C21.021 20.1579 18.592 19.5517 16.799 18.5485L19.499 13.5794Z" fill="white"/>
<path fill-rule="evenodd" clip-rule="evenodd" d="M39.5522 7.48926L38.5566 13.8818C38.4445 14.6043 38.371 15.3746 39.334 15.3746C40.2965 15.3746 40.4632 14.6043 40.5752 13.8818L41.5702 7.48926H47.443L46.3526 14.488C45.7422 18.4078 42.121 20.1575 38.5897 20.1575C35.0568 20.1575 31.98 18.4078 32.5907 14.488L33.6814 7.48926H39.5522Z" fill="white"/>
<path fill-rule="evenodd" clip-rule="evenodd" d="M58.1623 13.322C57.6017 12.9486 57.2134 12.6458 56.4556 12.6458C54.92 12.6458 53.9952 13.5793 53.7546 15.1191L53.0137 19.8786H47.0957L49.0255 7.48961H54.9424L54.5476 9.14625H54.6843C55.994 7.51263 57.1265 7.16288 59.1152 7.20952L58.1623 13.322Z" fill="white"/>
<path fill-rule="evenodd" clip-rule="evenodd" d="M61.9203 6.39282C62.4838 2.7767 64.4011 0.77002 68.0713 0.77002C68.9418 0.77002 69.7704 0.910208 70.6199 1.05011L69.8748 5.83322C69.5944 5.71692 69.3796 5.62279 69.1045 5.62279C68.095 5.62279 67.7356 6.46306 67.6077 7.27943L67.5358 7.74606L69.5703 7.48957L68.8184 12.3184L66.941 12.1558L65.7377 19.8786H59.8213L61.0232 12.1558L59.392 12.3184L60.144 7.48957L61.7174 7.7L61.9203 6.39282Z" fill="white"/>
<path fill-rule="evenodd" clip-rule="evenodd" d="M72.2176 0.957031H78.1345L75.1888 19.8787H69.2711L72.2176 0.957031Z" fill="white"/>
<path fill-rule="evenodd" clip-rule="evenodd" d="M79.3416 7.48957H85.2597L83.3305 19.8786H77.4127L79.3416 7.48957ZM86.1528 3.66332C85.837 5.69331 84.1393 6.57993 82.4424 6.57993C80.7447 6.57993 79.3229 5.69331 79.6393 3.66332C79.9192 1.86648 81.489 0.77002 83.3463 0.77002C85.2045 0.77002 86.4327 1.86648 86.1528 3.66332Z" fill="white"/>
<path fill-rule="evenodd" clip-rule="evenodd" d="M92.5423 9.47288H92.6801C94.0368 8.11993 95.0496 7.20972 96.9539 7.20972C99.9823 7.20972 100.815 9.51952 100.39 12.249L99.2029 19.8788H93.2843L94.225 13.8357C94.3385 13.1123 94.4981 12.0858 93.4892 12.0858C92.5024 12.0858 92.3428 13.1123 92.2296 13.8357L91.29 19.8788H85.3717L87.3006 7.48981H93.0805L92.5423 9.47288Z" fill="white"/>
<path fill-rule="evenodd" clip-rule="evenodd" d="M107.541 12.1327C107.675 11.2694 108.227 10.5227 109.122 10.5227C109.971 10.5227 110.447 11.2927 110.316 12.1327H107.541ZM115.742 14.6984C116.764 10.0561 113.789 7.20972 109.454 7.20972C105.578 7.20972 102.059 9.77629 101.42 13.8823C100.756 18.1519 103.951 20.158 107.782 20.158C110.581 20.158 114.074 18.7815 115.319 15.7949H109.562C109.357 16.3784 108.829 16.8217 108.21 16.8217C106.971 16.8217 106.985 15.7019 107.142 14.6984H115.742Z" fill="white"/>
</svg>
