<svg width="17" height="13" viewBox="0 0 21 15" fill="none" xmlns="http://www.w3.org/2000/svg">
<path d="M1 6.75C0.585786 6.75 0.25 7.08579 0.25 7.5C0.25 7.91421 0.585786 8.25 1 8.25V6.75ZM20 7.5L20.5242 8.03634C20.6686 7.89523 20.75 7.70188 20.75 7.5C20.75 7.29812 20.6686 7.10477 20.5242 6.96365L20 7.5ZM13.8742 0.463655C13.578 0.174122 13.1032 0.179538 12.8137 0.475753C12.5241 0.771968 12.5295 1.24681 12.8258 1.53634L13.8742 0.463655ZM12.8258 13.4637C12.5295 13.7532 12.5241 14.228 12.8137 14.5242C13.1032 14.8205 13.578 14.8259 13.8742 14.5363L12.8258 13.4637ZM1 8.25H20V6.75H1V8.25ZM20.5242 6.96365L13.8742 0.463655L12.8258 1.53634L19.4758 8.03634L20.5242 6.96365ZM19.4758 6.96365L12.8258 13.4637L13.8742 14.5363L20.5242 8.03634L19.4758 6.96365Z" fill="#121212"/>
</svg>
