timestamp,x,y
181850897.0,871,1065
181850907.0,787,1052
181850917.0,749,1037
181850927.0,667,1024
181850937.0,630,1013
181850947.0,636,1009
181850957.0,577,993
181850967.0,562,976
181850977.0,531,966
181850987.0,528,957
181850997.0,516,950
181851007.0,486,932
181851017.0,463,916
181851027.0,393,887
181851037.0,461,869
181851047.0,472,856
181851057.0,405,847
181851067.0,373,829
181851077.0,392,820
181851087.0,437,803
181851097.0,476,786
181851107.0,501,779
181851109.0,508,773
